﻿{
  "$schema": "http://json.schemastore.org/launchsettings.json",
  "profiles": {
    "SignalrCorePresentation.Scenario3": {
      "commandName": "Project",
      "launchBrowser": true,
      "launchUrl": "index.html",
      "applicationUrl": "https://localhost:53612",
      "environmentVariables": {
        "ASPNETCORE_ENVIRONMENT": "Development"
      }
    }
  }
}